YEAR,TM,G,MIN,PTS,REB,OREB,AST,STL,BLK,PF,TO,FGM,FGA,FG%,3PTM,3PTA,3PT%,FTM,FTA,FT%
202021,4,40,32.2,20.6,3.2,0.4,6.9,1.1,0.8,1.2,3.5,7.3,18.2,40.4,2.0,2.8,6.2,4.0,5.3,74.9
201819,5,32,34.5,20.7,3.6,0.5,8.7,1.5,0.9,2.2,3.8,7.7,17.3,44.4,1.6,3.2,5.3,3.8,5.5,69.7
201718,5,41,34.4,19.4,3.7,0.5,9.6,1.4,1.1,2.0,3.9,6.8,16.3,42.0,1.5,3.1,4.1,4.3,5.9,72.6
201617,5,78,36.4,23.1,4.2,0.8,10.7,2.0,0.6,1.9,4.1,8.3,18.4,45.1,1.1,3.4,3.5,5.4,6.8,80.1
201516,5,77,36.2,19.9,4.9,0.5,10.2,1.9,0.8,2.1,4.1,7.4,17.5,42.4,1.5,4.4,4.3,3.5,4.5,79.1
201415,5,79,35.9,17.6,4.6,0.5,10.0,1.7,0.6,2.3,3.8,6.6,14.8,44.5,0.8,4.2,2.7,3.6,4.6,78.5
201314,5,82,36.3,19.3,4.1,0.5,8.8,1.8,0.5,2.7,3.6,7.1,16.3,43.3,1.3,3.6,3.8,3.9,4.8,80.5
201213,5,49,32.7,18.5,4.0,0.7,7.6,1.3,0.8,2.4,3.2,6.6,15.0,44.1,0.2,3.3,0.9,5.0,6.2,80.4
201112,5,66,36.2,16.3,4.5,0.7,8.0,1.4,0.9,2.1,3.9,5.7,13.5,42.3,0.0,3.8,0.6,4.8,6.1,78.9
201011,5,69,37.8,16.4,4.6,0.5,8.3,1.8,0.5,2.5,3.8,5.8,14.1,40.9,0.5,4.1,1.7,4.4,5.7,76.6
